{"failedCount":0,"prefixedPath":"classpath:Backend\/user.feature","packageQualifiedName":"Backend.user","loopIndex":-1,"relativePath":"Backend\/user.feature","scenarioResults":[{"sectionIndex":0,"stepResults":[{"result":{"nanos":11569600,"startTime":1715259294093,"endTime":1715259294105,"millis":11.5696,"status":"passed"},"step":{"background":true,"line":7,"prefix":"*","index":0,"text":"url url"}},{"result":{"nanos":1720300,"startTime":1715259294108,"endTime":1715259294110,"millis":1.7203,"status":"passed"},"step":{"background":true,"line":8,"prefix":"*","index":1,"text":"def requestUser = {\"name\": \"Jhonny\",  \"job\": \"Tester\"}"}},{"result":{"nanos":568300,"startTime":1715259294108,"endTime":1715259294109,"millis":0.5683,"status":"passed"},"step":{"line":11,"prefix":"Given","index":0,"text":"path 'api\/users?page=2'"}},{"result":{"nanos":951116500,"startTime":1715259294108,"endTime":1715259295059,"millis":951.1165,"status":"passed"},"step":{"line":12,"prefix":"When","index":1,"text":"method get"},"stepLog":"07:54:54.371 request:\n1 > GET https:\/\/reqres.in\/api\/users%3Fpage=2\n1 > Host: reqres.in\n1 > Connection: Keep-Alive\n1 > User-Agent: Apache-HttpClient\/4.5.14 (Java\/21.0.3)\n1 > Accept-Encoding: gzip,deflate\n\n\n07:54:55.056 response time in milliseconds: 685\n1 < 200\n1 < Date: Thu, 09 May 2024 12:54:54 GMT\n1 < Content-Type: application\/json; charset=utf-8\n1 < Transfer-Encoding: chunked\n1 < Connection: keep-alive\n1 < Report-To: {\"group\":\"heroku-nel\",\"max_age\":3600,\"endpoints\":[{\"url\":\"https:\/\/nel.heroku.com\/reports?ts=1714852733&sid=c4c9725f-1ab0-44d8-820f-430df2718e11&s=6RCIRCjcCdwsxGrYU4RupC3s1l%2FGvF7yKjAyp6tS%2Fi4%3D\"}]}\n1 < Reporting-Endpoints: heroku-nel=https:\/\/nel.heroku.com\/reports?ts=1714852733&sid=c4c9725f-1ab0-44d8-820f-430df2718e11&s=6RCIRCjcCdwsxGrYU4RupC3s1l%2FGvF7yKjAyp6tS%2Fi4%3D\n1 < Nel: {\"report_to\":\"heroku-nel\",\"max_age\":3600,\"success_fraction\":0.005,\"failure_fraction\":0.05,\"response_headers\":[\"Via\"]}\n1 < X-Powered-By: Express\n1 < Access-Control-Allow-Origin: *\n1 < Etag: W\/\"2c1-N6Rqerxquq2kgQhL51EiSg4x0R8\"\n1 < Via: 1.1 vegur\n1 < Cache-Control: max-age=14400\n1 < CF-Cache-Status: HIT\n1 < Age: 1985\n1 < Vary: Accept-Encoding\n1 < Server: cloudflare\n1 < CF-RAY: 8811d73e2ba674c2-MIA\n{\"page\":1,\"per_page\":6,\"total\":12,\"total_pages\":2,\"data\":[{\"id\":1,\"name\":\"cerulean\",\"year\":2000,\"color\":\"#98B2D1\",\"pantone_value\":\"15-4020\"},{\"id\":2,\"name\":\"fuchsia rose\",\"year\":2001,\"color\":\"#C74375\",\"pantone_value\":\"17-2031\"},{\"id\":3,\"name\":\"true red\",\"year\":2002,\"color\":\"#BF1932\",\"pantone_value\":\"19-1664\"},{\"id\":4,\"name\":\"aqua sky\",\"year\":2003,\"color\":\"#7BC4C4\",\"pantone_value\":\"14-4811\"},{\"id\":5,\"name\":\"tigerlily\",\"year\":2004,\"color\":\"#E2583E\",\"pantone_value\":\"17-1456\"},{\"id\":6,\"name\":\"blue turquoise\",\"year\":2005,\"color\":\"#53B0AE\",\"pantone_value\":\"15-5217\"}],\"support\":{\"url\":\"https:\/\/reqres.in\/#support-heading\",\"text\":\"To keep ReqRes free, contributions towards server costs are appreciated!\"}}\n\n"},{"result":{"nanos":4085300,"startTime":1715259295072,"endTime":1715259295076,"millis":4.0853,"status":"passed"},"step":{"line":13,"prefix":"Then","index":2,"text":"status 200"}}],"executorName":"main","line":10,"name":"Check the service Get Method","description":"","durationMillis":969.06,"startTime":1715259293908,"failed":false,"refId":"[1:10]","endTime":1715259295072,"exampleIndex":-1},{"sectionIndex":1,"stepResults":[{"result":{"nanos":963100,"startTime":1715259295088,"endTime":1715259295089,"millis":0.9631,"status":"passed"},"step":{"background":true,"line":7,"prefix":"*","index":0,"text":"url url"}},{"result":{"nanos":809300,"startTime":1715259295094,"endTime":1715259295095,"millis":0.8093,"status":"passed"},"step":{"background":true,"line":8,"prefix":"*","index":1,"text":"def requestUser = {\"name\": \"Jhonny\",  \"job\": \"Tester\"}"}},{"result":{"nanos":456100,"startTime":1715259295094,"endTime":1715259295094,"millis":0.4561,"status":"passed"},"step":{"line":17,"prefix":"Given","index":0,"text":"path 'api\/users?page=2'"}},{"result":{"nanos":378404800,"startTime":1715259295094,"endTime":1715259295472,"millis":378.4048,"status":"passed"},"step":{"line":18,"prefix":"When","index":1,"text":"method get"},"stepLog":"07:54:55.094 request:\n1 > GET https:\/\/reqres.in\/api\/users%3Fpage=2\n1 > Host: reqres.in\n1 > Connection: Keep-Alive\n1 > User-Agent: Apache-HttpClient\/4.5.14 (Java\/21.0.3)\n1 > Accept-Encoding: gzip,deflate\n\n\n07:54:55.457 response time in milliseconds: 363\n1 < 200\n1 < Date: Thu, 09 May 2024 12:54:54 GMT\n1 < Content-Type: application\/json; charset=utf-8\n1 < Transfer-Encoding: chunked\n1 < Connection: keep-alive\n1 < Report-To: {\"group\":\"heroku-nel\",\"max_age\":3600,\"endpoints\":[{\"url\":\"https:\/\/nel.heroku.com\/reports?ts=1714852733&sid=c4c9725f-1ab0-44d8-820f-430df2718e11&s=6RCIRCjcCdwsxGrYU4RupC3s1l%2FGvF7yKjAyp6tS%2Fi4%3D\"}]}\n1 < Reporting-Endpoints: heroku-nel=https:\/\/nel.heroku.com\/reports?ts=1714852733&sid=c4c9725f-1ab0-44d8-820f-430df2718e11&s=6RCIRCjcCdwsxGrYU4RupC3s1l%2FGvF7yKjAyp6tS%2Fi4%3D\n1 < Nel: {\"report_to\":\"heroku-nel\",\"max_age\":3600,\"success_fraction\":0.005,\"failure_fraction\":0.05,\"response_headers\":[\"Via\"]}\n1 < X-Powered-By: Express\n1 < Access-Control-Allow-Origin: *\n1 < Etag: W\/\"2c1-N6Rqerxquq2kgQhL51EiSg4x0R8\"\n1 < Via: 1.1 vegur\n1 < Cache-Control: max-age=14400\n1 < CF-Cache-Status: HIT\n1 < Age: 1985\n1 < Vary: Accept-Encoding\n1 < Server: cloudflare\n1 < CF-RAY: 8811d74089be67ba-MIA\n{\"page\":1,\"per_page\":6,\"total\":12,\"total_pages\":2,\"data\":[{\"id\":1,\"name\":\"cerulean\",\"year\":2000,\"color\":\"#98B2D1\",\"pantone_value\":\"15-4020\"},{\"id\":2,\"name\":\"fuchsia rose\",\"year\":2001,\"color\":\"#C74375\",\"pantone_value\":\"17-2031\"},{\"id\":3,\"name\":\"true red\",\"year\":2002,\"color\":\"#BF1932\",\"pantone_value\":\"19-1664\"},{\"id\":4,\"name\":\"aqua sky\",\"year\":2003,\"color\":\"#7BC4C4\",\"pantone_value\":\"14-4811\"},{\"id\":5,\"name\":\"tigerlily\",\"year\":2004,\"color\":\"#E2583E\",\"pantone_value\":\"17-1456\"},{\"id\":6,\"name\":\"blue turquoise\",\"year\":2005,\"color\":\"#53B0AE\",\"pantone_value\":\"15-5217\"}],\"support\":{\"url\":\"https:\/\/reqres.in\/#support-heading\",\"text\":\"To keep ReqRes free, contributions towards server costs are appreciated!\"}}\n\n"},{"result":{"nanos":24900,"startTime":1715259295473,"endTime":1715259295473,"millis":0.0249,"status":"passed"},"step":{"line":19,"prefix":"Then","index":2,"text":"status 200"}}],"executorName":"main","line":16,"name":"Check the service Get Method, Exception","description":"","durationMillis":380.6582,"startTime":1715259295088,"failed":false,"refId":"[2:16]","endTime":1715259295473,"exampleIndex":-1},{"sectionIndex":2,"stepResults":[{"result":{"nanos":313200,"startTime":1715259295473,"endTime":1715259295473,"millis":0.3132,"status":"passed"},"step":{"background":true,"line":7,"prefix":"*","index":0,"text":"url url"}},{"result":{"nanos":723500,"startTime":1715259295488,"endTime":1715259295489,"millis":0.7235,"status":"passed"},"step":{"background":true,"line":8,"prefix":"*","index":1,"text":"def requestUser = {\"name\": \"Jhonny\",  \"job\": \"Tester\"}"}},{"result":{"nanos":12093300,"startTime":1715259295488,"endTime":1715259295500,"millis":12.0933,"status":"passed"},"step":{"line":23,"prefix":"Given","index":0,"text":"path 'api','users'"}},{"result":{"nanos":559900,"startTime":1715259295495,"endTime":1715259295496,"millis":0.5599,"status":"passed"},"step":{"line":24,"prefix":"And","index":1,"text":"request requestUser"}},{"result":{"nanos":631486400,"startTime":1715259295495,"endTime":1715259296126,"millis":631.4864,"status":"passed"},"step":{"line":25,"prefix":"When","index":2,"text":"method post"},"stepLog":"07:54:55.544 request:\n1 > POST https:\/\/reqres.in\/api\/users\n1 > Content-Type: application\/json; charset=UTF-8\n1 > Content-Length: 32\n1 > Host: reqres.in\n1 > Connection: Keep-Alive\n1 > User-Agent: Apache-HttpClient\/4.5.14 (Java\/21.0.3)\n1 > Accept-Encoding: gzip,deflate\n{\"name\":\"Jhonny\",\"job\":\"Tester\"}\n\n07:54:56.127 response time in milliseconds: 583\n1 < 201\n1 < Date: Thu, 09 May 2024 12:54:55 GMT\n1 < Content-Type: application\/json; charset=utf-8\n1 < Content-Length: 82\n1 < Connection: keep-alive\n1 < Report-To: {\"group\":\"heroku-nel\",\"max_age\":3600,\"endpoints\":[{\"url\":\"https:\/\/nel.heroku.com\/reports?ts=1715259295&sid=c4c9725f-1ab0-44d8-820f-430df2718e11&s=cIwfCgLNRzQ3R81V2sF74rIjBxN49O%2Fr0Gtap%2FJmLgA%3D\"}]}\n1 < Reporting-Endpoints: heroku-nel=https:\/\/nel.heroku.com\/reports?ts=1715259295&sid=c4c9725f-1ab0-44d8-820f-430df2718e11&s=cIwfCgLNRzQ3R81V2sF74rIjBxN49O%2Fr0Gtap%2FJmLgA%3D\n1 < Nel: {\"report_to\":\"heroku-nel\",\"max_age\":3600,\"success_fraction\":0.005,\"failure_fraction\":0.05,\"response_headers\":[\"Via\"]}\n1 < X-Powered-By: Express\n1 < Access-Control-Allow-Origin: *\n1 < Etag: W\/\"52-+lUorjdhESkU1rezswYbQ+q31wY\"\n1 < Via: 1.1 vegur\n1 < CF-Cache-Status: DYNAMIC\n1 < Server: cloudflare\n1 < CF-RAY: 8811d7434c3e09ee-MIA\n{\"name\":\"Jhonny\",\"job\":\"Tester\",\"id\":\"707\",\"createdAt\":\"2024-05-09T12:54:55.444Z\"}\n\n"},{"result":{"nanos":19200,"startTime":1715259296127,"endTime":1715259296127,"millis":0.0192,"status":"passed"},"step":{"line":26,"prefix":"Then","index":3,"text":"status 201"}}],"executorName":"main","line":22,"name":"Check the service Post Method","description":"","durationMillis":645.1955,"startTime":1715259295473,"failed":false,"refId":"[3:22]","endTime":1715259296127,"exampleIndex":-1}],"callDepth":0,"name":"Service Users","description":"As QA Automation\r\n  I want to consult a users of page 2\r\n  To validate the status code and response","resultDate":"2024-05-09 07:54:56 a.\u202Fm.","durationMillis":1994.9137,"passedCount":3}